{
"bones": [
	{ "name": "root", "scaleX": 0.8, "scaleY": 0.8 },
	{ "name": "bone", "parent": "root", "length": 47.91, "x": -65.07, "y": -86.8, "scaleX": 1.25, "scaleY": 1.25, "rotation": -140.41 },
	{ "name": "bone10", "parent": "root", "length": 65.6, "x": 120.57, "y": 60.78, "rotation": -154.53 },
	{ "name": "bone11", "parent": "root", "length": 69.01, "x": 246.29, "y": 46.33, "rotation": -174.15 },
	{ "name": "bone12", "parent": "root", "length": 35.92, "x": -151.44, "y": 175.81, "rotation": 90.9 },
	{ "name": "bone26", "parent": "root", "length": 85.4, "x": -172.83, "y": 62.49, "rotation": -147.79 },
	{ "name": "bone27", "parent": "root", "length": 71.01, "x": 70.58, "y": 337.81, "rotation": 48.36 },
	{
		"name": "bone28",
		"parent": "root",
		"length": 58.41,
		"x": 251.36,
		"y": -35.54,
		"scaleX": 0.375,
		"scaleY": 0.375,
		"rotation": 69.31
	},
	{
		"name": "bone29",
		"parent": "root",
		"length": 58.41,
		"x": 245.65,
		"y": -119.47,
		"scaleX": 0.375,
		"scaleY": 0.375,
		"rotation": 4.92
	},
	{ "name": "bone3", "parent": "root", "length": 47.91, "x": 113, "y": -86.8, "scaleX": 1.25, "scaleY": 1.25, "rotation": -140.41 },
	{
		"name": "bone30",
		"parent": "root",
		"length": 58.41,
		"x": 268.91,
		"y": -87.29,
		"scaleX": 0.375,
		"scaleY": 0.375,
		"rotation": -153.32
	},
	{
		"name": "bone31",
		"parent": "root",
		"length": 58.41,
		"x": 295.64,
		"y": -130.36,
		"scaleX": 0.375,
		"scaleY": 0.375,
		"rotation": -90.96
	},
	{
		"name": "bone32",
		"parent": "root",
		"length": 58.41,
		"x": 306.53,
		"y": -87.29,
		"scaleX": 0.375,
		"scaleY": 0.375,
		"rotation": 162.51
	},
	{
		"name": "bone33",
		"parent": "root",
		"length": 58.41,
		"x": 226.34,
		"y": -81.85,
		"scaleX": 0.375,
		"scaleY": 0.375,
		"rotation": -115.2
	},
	{
		"name": "bone34",
		"parent": "root",
		"length": 58.41,
		"x": 204.56,
		"y": -107.59,
		"scaleX": 0.375,
		"scaleY": 0.375,
		"rotation": -4.69
	},
	{
		"name": "bone35",
		"parent": "root",
		"length": 58.41,
		"x": 188.72,
		"y": -78.88,
		"scaleX": 0.375,
		"scaleY": 0.375,
		"rotation": -122.14
	},
	{
		"name": "bone36",
		"parent": "root",
		"length": 58.41,
		"x": 218.42,
		"y": -59.08,
		"scaleX": 0.375,
		"scaleY": 0.375,
		"rotation": 135
	},
	{
		"name": "bone37",
		"parent": "root",
		"length": 58.41,
		"x": 249.61,
		"y": -57.1,
		"scaleX": 0.375,
		"scaleY": 0.375,
		"rotation": -174.1
	},
	{
		"name": "bone38",
		"parent": "root",
		"length": 58.41,
		"x": 275.35,
		"y": -63.04,
		"scaleX": 0.375,
		"scaleY": 0.375,
		"rotation": 46.48
	},
	{
		"name": "bone39",
		"parent": "root",
		"length": 58.41,
		"x": 191.11,
		"y": -47.83,
		"scaleX": 0.375,
		"scaleY": 0.375,
		"rotation": -9.82
	},
	{ "name": "bone4", "parent": "root", "length": 47.91, "x": 113, "y": 2.76, "scaleX": 1.25, "scaleY": 1.25, "rotation": -140.41 },
	{
		"name": "bone40",
		"parent": "root",
		"length": 58.41,
		"x": 177.07,
		"y": -102.82,
		"scaleX": 0.375,
		"scaleY": 0.375,
		"rotation": -62.36
	},
	{
		"name": "bone41",
		"parent": "root",
		"length": 58.41,
		"x": 265.99,
		"y": -115.1,
		"scaleX": 0.375,
		"scaleY": 0.375,
		"rotation": 71.58
	},
	{
		"name": "bone42",
		"parent": "root",
		"length": 58.41,
		"x": 222.11,
		"y": -37.88,
		"scaleX": 0.375,
		"scaleY": 0.375,
		"rotation": 103.67
	},
	{ "name": "bone5", "parent": "root", "length": 57.88, "x": 131.41, "y": 135.92, "scaleY": -1, "rotation": 155.82 },
	{ "name": "bone6", "parent": "root", "length": 44.79, "x": 223.89, "y": 142.42, "scaleY": -1, "rotation": 180 },
	{ "name": "bone7", "parent": "root", "length": 69.01, "x": 246.29, "y": 91.12, "rotation": -174.15 }
],
"slots": [
	{ "name": "smoke", "bone": "bone28", "color": "91919100", "attachment": "smoke" },
	{ "name": "smoke15", "bone": "bone42", "color": "91919100", "attachment": "smoke" },
	{ "name": "smoke14", "bone": "bone41", "color": "91919100", "attachment": "smoke" },
	{ "name": "smoke13", "bone": "bone40", "color": "91919100", "attachment": "smoke" },
	{ "name": "smoke12", "bone": "bone39", "color": "91919100", "attachment": "smoke" },
	{ "name": "smoke11", "bone": "bone38", "color": "91919100", "attachment": "smoke" },
	{ "name": "smoke10", "bone": "bone37", "color": "91919100", "attachment": "smoke" },
	{ "name": "smoke9", "bone": "bone36", "color": "91919100", "attachment": "smoke" },
	{ "name": "smoke8", "bone": "bone35", "color": "91919100", "attachment": "smoke" },
	{ "name": "smoke7", "bone": "bone34", "color": "91919100", "attachment": "smoke" },
	{ "name": "smoke6", "bone": "bone33", "color": "91919100", "attachment": "smoke" },
	{ "name": "smoke5", "bone": "bone32", "color": "91919100", "attachment": "smoke" },
	{ "name": "smoke4", "bone": "bone31", "color": "91919100", "attachment": "smoke" },
	{ "name": "smoke3", "bone": "bone30", "color": "91919100", "attachment": "smoke" },
	{ "name": "smoke2", "bone": "bone29", "color": "91919100", "attachment": "smoke" },
	{ "name": "explose_item", "bone": "bone27", "color": "ffffff00", "attachment": "explose_item" },
	{ "name": "explose1", "bone": "bone26", "color": "ffffff00", "attachment": "explose1" },
	{ "name": "spark1", "bone": "bone5", "color": "ffffff00", "attachment": "spark1" },
	{ "name": "spark2", "bone": "bone7", "color": "ffffff00", "attachment": "spark2" },
	{ "name": "spark23", "bone": "bone11", "color": "ffffff00", "attachment": "spark2" },
	{ "name": "spark32", "bone": "bone10", "color": "ffffff00", "attachment": "spark3" },
	{ "name": "spark4", "bone": "bone6", "color": "ffffff00", "attachment": "spark4" },
	{ "name": "sparky", "bone": "bone12", "color": "ffffff00", "attachment": "sparky" }
],
"skins": {
	"default": {
		"explose1": {
			"explose1": { "x": 48.34, "y": -5.35, "rotation": 147.79, "width": 369, "height": 379 },
			"explose2": { "x": 48.34, "y": -5.35, "rotation": 147.79, "width": 369, "height": 379 },
			"explose3": { "x": 48.34, "y": -5.35, "rotation": 147.79, "width": 369, "height": 379 },
			"explose4": { "x": 48.34, "y": -5.35, "rotation": 147.79, "width": 369, "height": 379 }
		},
		"explose_item": {
			"explose_item": { "rotation": -48.36, "width": 369, "height": 377 }
		},
		"smoke": {
			"smoke": { "x": 2.39, "y": -2.31, "rotation": -135, "width": 112, "height": 120 }
		},
		"smoke10": {
			"smoke": { "x": 2.39, "y": -2.31, "rotation": -135, "width": 112, "height": 120 }
		},
		"smoke11": {
			"smoke": { "x": 2.39, "y": -2.31, "rotation": -135, "width": 112, "height": 120 }
		},
		"smoke12": {
			"smoke": { "x": 2.39, "y": -2.31, "rotation": -135, "width": 112, "height": 120 }
		},
		"smoke13": {
			"smoke": { "x": 2.39, "y": -2.31, "rotation": -135, "width": 112, "height": 120 }
		},
		"smoke14": {
			"smoke": { "x": 2.39, "y": -2.31, "rotation": -135, "width": 112, "height": 120 }
		},
		"smoke15": {
			"smoke": { "x": 2.39, "y": -2.31, "rotation": -135, "width": 112, "height": 120 }
		},
		"smoke2": {
			"smoke": { "x": 2.39, "y": -2.31, "rotation": -135, "width": 112, "height": 120 }
		},
		"smoke3": {
			"smoke": { "x": 2.39, "y": -2.31, "rotation": -135, "width": 112, "height": 120 }
		},
		"smoke4": {
			"smoke": { "x": 2.39, "y": -2.31, "rotation": -135, "width": 112, "height": 120 }
		},
		"smoke5": {
			"smoke": { "x": 2.39, "y": -2.31, "rotation": -135, "width": 112, "height": 120 }
		},
		"smoke6": {
			"smoke": { "x": 2.39, "y": -2.31, "rotation": -135, "width": 112, "height": 120 }
		},
		"smoke7": {
			"smoke": { "x": 2.39, "y": -2.31, "rotation": -135, "width": 112, "height": 120 }
		},
		"smoke8": {
			"smoke": { "x": 2.39, "y": -2.31, "rotation": -135, "width": 112, "height": 120 }
		},
		"smoke9": {
			"smoke": { "x": 2.39, "y": -2.31, "rotation": -135, "width": 112, "height": 120 }
		},
		"spark1": {
			"spark1": { "x": 27.9, "y": 1.23, "rotation": -155.82, "width": 67, "height": 36 }
		},
		"spark2": {
			"spark2": { "x": 34.17, "y": -1.72, "rotation": 174.15, "width": 82, "height": 20 }
		},
		"spark23": {
			"spark2": { "x": 34.17, "y": -1.72, "rotation": 174.15, "width": 82, "height": 20 }
		},
		"spark32": {
			"spark3": { "x": 33.83, "y": 0.11, "rotation": 154.53, "width": 74, "height": 37 }
		},
		"spark4": {
			"spark4": { "x": 24.54, "y": 2.65, "rotation": -180, "width": 61, "height": 18 }
		},
		"sparky": {
			"sparky": { "x": -3.89, "y": -10.82, "rotation": -90.9, "width": 101, "height": 148 }
		}
	}
},
"animations": {
	"bullet": {
		"bones": {
			"bone12": {
				"translate": [
					{ "time": 0, "x": 180.48, "y": -137.08 },
					{ "time": 0.0666, "x": 186.67, "y": -132.44 }
				],
				"scale": [
					{ "time": 0, "x": 1, "y": 1 },
					{ "time": 0.0666, "x": 1.125, "y": 1.125 }
				]
			},
			"bone10": {
				"rotate": [
					{ "time": 0, "angle": 8.34 }
				],
				"translate": [
					{ "time": 0, "x": -129.19, "y": -79.61 },
					{ "time": 0.0666, "x": -132.94, "y": -83.36 }
				]
			},
			"bone7": {
				"rotate": [
					{ "time": 0, "angle": 5.1 }
				],
				"translate": [
					{ "time": 0, "x": -265.3, "y": -95.13 },
					{ "time": 0.0666, "x": -269.05, "y": -98.88 }
				]
			},
			"bone5": {
				"translate": [
					{ "time": 0, "x": -144.97, "y": -121.3 },
					{ "time": 0.0666, "x": -148.72, "y": -117.55 }
				]
			},
			"bone6": {
				"rotate": [
					{ "time": 0, "angle": -47.59 }
				],
				"translate": [
					{ "time": 0, "x": -231.76, "y": -109.47 },
					{ "time": 0.0666, "x": -235.51, "y": -105.72 }
				]
			},
			"bone11": {
				"rotate": [
					{ "time": 0, "angle": 348.7 }
				],
				"translate": [
					{ "time": 0, "x": -288.97, "y": -35.5 },
					{ "time": 0.0666, "x": -292.72, "y": -35.5 }
				],
				"scale": [
					{ "time": 0, "x": 0.5, "y": 0.5 }
				]
			}
		},
		"slots": {
			"sparky": {
				"color": [
					{ "time": 0, "color": "ffffffff" },
					{ "time": 0.1666, "color": "ffffff00" }
				]
			},
			"spark1": {
				"color": [
					{ "time": 0, "color": "ffffffff" },
					{ "time": 0.1666, "color": "ffffff00" }
				]
			},
			"spark2": {
				"color": [
					{ "time": 0, "color": "ffffffff" },
					{ "time": 0.1666, "color": "ffffff00" }
				]
			},
			"spark4": {
				"color": [
					{ "time": 0, "color": "ffffffff" },
					{ "time": 0.1666, "color": "ffffff00" }
				]
			},
			"spark23": {
				"color": [
					{ "time": 0, "color": "ffffffff" },
					{ "time": 0.1666, "color": "ffffff00" }
				]
			},
			"spark32": {
				"color": [
					{ "time": 0, "color": "ffffffff" },
					{ "time": 0.1666, "color": "ffffff00" }
				]
			}
		}
	},
	"bullet_bazoka": {
		"bones": {
			"root": {
				"rotate": [
					{ "time": 0, "angle": 0 }
				],
				"translate": [
					{ "time": 0, "x": 0, "y": 0 }
				]
			},
			"bone29": {
				"rotate": [
					{ "time": 0, "angle": 0 },
					{ "time": 0.6666, "angle": 126.68 }
				],
				"translate": [
					{ "time": 0, "x": -230.6, "y": 123.63 },
					{ "time": 0.6666, "x": -143.86, "y": 156.82 }
				],
				"scale": [
					{ "time": 0, "x": 2.125, "y": 2.125 },
					{ "time": 0.6666, "x": 2.5, "y": 2.5 }
				]
			},
			"bone28": {
				"rotate": [
					{ "time": 0, "angle": 0 },
					{ "time": 0.6666, "angle": -184.7 }
				],
				"translate": [
					{ "time": 0, "x": -230.98, "y": 114.51 },
					{ "time": 0.6666, "x": -271.38, "y": 154.17 }
				],
				"scale": [
					{ "time": 0, "x": 2.125, "y": 2.125 },
					{ "time": 0.6666, "x": 2.5, "y": 2.5 }
				]
			},
			"bone41": {
				"rotate": [
					{ "time": 0, "angle": 0 },
					{ "time": 0.6666, "angle": -180.71 }
				],
				"translate": [
					{ "time": 0, "x": -230.6, "y": 123.63 },
					{ "time": 0.6666, "x": -282.86, "y": 190.76 }
				],
				"scale": [
					{ "time": 0, "x": 2.125, "y": 2.125 },
					{ "time": 0.6666, "x": 2.5, "y": 2.5 }
				]
			},
			"bone30": {
				"rotate": [
					{ "time": 0, "angle": 0 },
					{ "time": 0.6666, "angle": 256.01 }
				],
				"translate": [
					{ "time": 0, "x": -230.6, "y": 123.63 },
					{ "time": 0.6666, "x": -146.55, "y": 164.9 }
				],
				"scale": [
					{ "time": 0, "x": 2.125, "y": 2.125 },
					{ "time": 0.6666, "x": 2.5, "y": 2.5 }
				]
			},
			"bone33": {
				"rotate": [
					{ "time": 0, "angle": 0 },
					{ "time": 0.6666, "angle": 272.04 }
				],
				"translate": [
					{ "time": 0, "x": -230.6, "y": 123.63 },
					{ "time": 0.6666, "x": -294.17, "y": 177.83 }
				],
				"scale": [
					{ "time": 0, "x": 2.125, "y": 2.125 },
					{ "time": 0.6666, "x": 2.5, "y": 2.5 }
				]
			},
			"bone35": {
				"rotate": [
					{ "time": 0, "angle": 0 },
					{ "time": 0.6666, "angle": 248.67 }
				],
				"translate": [
					{ "time": 0, "x": -214.26, "y": 123.63 },
					{ "time": 0.6666, "x": -225.03, "y": 216.62 }
				],
				"scale": [
					{ "time": 0, "x": 2.125, "y": 2.125 },
					{ "time": 0.6666, "x": 2.5, "y": 2.5 }
				]
			},
			"bone32": {
				"rotate": [
					{ "time": 0, "angle": 0 },
					{ "time": 0.6666, "angle": -162.7 }
				],
				"translate": [
					{ "time": 0, "x": -273.16, "y": 123.63 },
					{ "time": 0.6666, "x": -222.52, "y": 162.21 }
				],
				"scale": [
					{ "time": 0, "x": 2.125, "y": 2.125 },
					{ "time": 0.6666, "x": 2.5, "y": 2.5 }
				]
			},
			"bone40": {
				"rotate": [
					{ "time": 0, "angle": 0 },
					{ "time": 0.6666, "angle": 148.71 }
				],
				"translate": [
					{ "time": 0, "x": -223.38, "y": 136.17 },
					{ "time": 0.6666, "x": -237.92, "y": 170.98 }
				],
				"scale": [
					{ "time": 0, "x": 2.125, "y": 2.125 },
					{ "time": 0.6666, "x": 2.5, "y": 2.5 }
				]
			},
			"bone26": {
				"translate": [
					{ "time": 0, "x": 171.46, "y": -32.96 }
				],
				"scale": [
					{ "time": 0, "x": 1.25, "y": 1.25 }
				]
			},
			"bone31": {
				"rotate": [
					{ "time": 0, "angle": 0 },
					{ "time": 0.6666, "angle": 196.42 }
				],
				"translate": [
					{ "time": 0, "x": -281.9, "y": 162.39 },
					{ "time": 0.6666, "x": -204.86, "y": 234.91 }
				],
				"scale": [
					{ "time": 0, "x": 2.125, "y": 2.125 },
					{ "time": 0.6666, "x": 2.5, "y": 2.5 }
				]
			},
			"bone39": {
				"rotate": [
					{ "time": 0, "angle": 0 },
					{ "time": 0.6666, "angle": 155.58 }
				],
				"translate": [
					{ "time": 0, "x": -227.56, "y": 118.31 },
					{ "time": 0.6666, "x": -270.66, "y": 182.75 }
				],
				"scale": [
					{ "time": 0, "x": 2.125, "y": 2.125 },
					{ "time": 0.6666, "x": 2.5, "y": 2.5 }
				]
			},
			"bone36": {
				"rotate": [
					{ "time": 0, "angle": 0 },
					{ "time": 0.6666, "angle": -152.23 }
				],
				"translate": [
					{ "time": 0, "x": -230.22, "y": 122.11 },
					{ "time": 0.6666, "x": -198.43, "y": 221.57 }
				],
				"scale": [
					{ "time": 0, "x": 2.125, "y": 2.125 },
					{ "time": 0.6666, "x": 2.5, "y": 2.5 }
				]
			},
			"bone37": {
				"rotate": [
					{ "time": 0, "angle": 0 },
					{ "time": 0.6666, "angle": 242.08 }
				],
				"translate": [
					{ "time": 0, "x": -230.6, "y": 123.63 },
					{ "time": 0.6666, "x": -195.04, "y": 185.92 }
				],
				"scale": [
					{ "time": 0, "x": 2.125, "y": 2.125 },
					{ "time": 0.6666, "x": 2.5, "y": 2.5 }
				]
			},
			"bone42": {
				"rotate": [
					{ "time": 0, "angle": 0 },
					{ "time": 0.6666, "angle": -146.42 }
				],
				"translate": [
					{ "time": 0, "x": -229.08, "y": 116.79 },
					{ "time": 0.6666, "x": -239.85, "y": 181.23 }
				],
				"scale": [
					{ "time": 0, "x": 2.125, "y": 2.125 },
					{ "time": 0.6666, "x": 2.5, "y": 2.5 }
				]
			},
			"bone34": {
				"rotate": [
					{ "time": 0, "angle": 0 },
					{ "time": 0.6666, "angle": 142.7 }
				],
				"translate": [
					{ "time": 0, "x": -230.6, "y": 123.63 },
					{ "time": 0.6666, "x": -289.32, "y": 139.58 }
				],
				"scale": [
					{ "time": 0, "x": 2.125, "y": 2.125 },
					{ "time": 0.6666, "x": 2.5, "y": 2.5 }
				]
			},
			"bone38": {
				"rotate": [
					{ "time": 0, "angle": 0 },
					{ "time": 0.6666, "angle": -205.91 }
				],
				"translate": [
					{ "time": 0, "x": -233.64, "y": 122.49 },
					{ "time": 0.6666, "x": -219.09, "y": 162.69 }
				],
				"scale": [
					{ "time": 0, "x": 2.125, "y": 2.125 },
					{ "time": 0.6666, "x": 2.5, "y": 2.5 }
				]
			},
			"bone27": {
				"translate": [
					{ "time": 0, "x": -67.28, "y": -303.52 }
				],
				"scale": [
					{ "time": 0, "x": 0.625, "y": 0.625 },
					{ "time": 0.1666, "x": 1.25, "y": 1.25 }
				]
			}
		},
		"slots": {
			"explose_item": {
				"color": [
					{ "time": 0, "color": "ffffffff", "curve": "stepped" },
					{ "time": 0.1666, "color": "ffffffff" },
					{ "time": 0.2666, "color": "ffffff00" }
				]
			},
			"smoke": {
				"color": [
					{ "time": 0, "color": "2b2b2bca" },
					{ "time": 0.3333, "color": "3d3d3d65" },
					{ "time": 0.6666, "color": "63636300" }
				]
			},
			"explose1": {
				"attachment": [
					{ "time": 0.1, "name": "explose2" },
					{ "time": 0.2, "name": "explose3" },
					{ "time": 0.3, "name": "explose4" }
				],
				"color": [
					{ "time": 0, "color": "ffffffff", "curve": "stepped" },
					{ "time": 0.3, "color": "ffffffff" },
					{ "time": 0.3333, "color": "ffffff00" }
				]
			},
			"smoke2": {
				"color": [
					{ "time": 0, "color": "2b2b2bca" },
					{ "time": 0.3333, "color": "3d3d3d65" },
					{ "time": 0.6666, "color": "63636300" }
				]
			},
			"smoke3": {
				"color": [
					{ "time": 0, "color": "2b2b2bca" },
					{ "time": 0.3333, "color": "3d3d3d65" },
					{ "time": 0.6666, "color": "63636300" }
				]
			},
			"smoke4": {
				"color": [
					{ "time": 0, "color": "2b2b2bca" },
					{ "time": 0.3333, "color": "3d3d3d65" },
					{ "time": 0.6666, "color": "63636300" }
				]
			},
			"smoke5": {
				"color": [
					{ "time": 0, "color": "2b2b2bca" },
					{ "time": 0.3333, "color": "3d3d3d65" },
					{ "time": 0.6666, "color": "63636300" }
				]
			},
			"smoke6": {
				"color": [
					{ "time": 0, "color": "2b2b2bca" },
					{ "time": 0.3333, "color": "3d3d3d65" },
					{ "time": 0.6666, "color": "63636300" }
				]
			},
			"smoke7": {
				"color": [
					{ "time": 0, "color": "2b2b2bca" },
					{ "time": 0.3333, "color": "3d3d3d65" },
					{ "time": 0.6666, "color": "63636300" }
				]
			},
			"smoke8": {
				"color": [
					{ "time": 0, "color": "2b2b2bca" },
					{ "time": 0.3333, "color": "3d3d3d65" },
					{ "time": 0.6666, "color": "63636300" }
				]
			},
			"smoke9": {
				"color": [
					{ "time": 0, "color": "2b2b2bca" },
					{ "time": 0.3333, "color": "3d3d3d65" },
					{ "time": 0.6666, "color": "63636300" }
				]
			},
			"smoke10": {
				"color": [
					{ "time": 0, "color": "2b2b2bca" },
					{ "time": 0.3333, "color": "3d3d3d65" },
					{ "time": 0.6666, "color": "63636300" }
				]
			},
			"smoke11": {
				"color": [
					{ "time": 0, "color": "2b2b2bca" },
					{ "time": 0.3333, "color": "3d3d3d65" },
					{ "time": 0.6666, "color": "63636300" }
				]
			},
			"smoke12": {
				"color": [
					{ "time": 0, "color": "2b2b2bca" },
					{ "time": 0.3333, "color": "3d3d3d65" },
					{ "time": 0.6666, "color": "63636300" }
				]
			},
			"smoke13": {
				"color": [
					{ "time": 0, "color": "2b2b2bca" },
					{ "time": 0.3333, "color": "3d3d3d65" },
					{ "time": 0.6666, "color": "63636300" }
				]
			},
			"smoke14": {
				"color": [
					{ "time": 0, "color": "2b2b2bca" },
					{ "time": 0.3333, "color": "3d3d3d65" },
					{ "time": 0.6666, "color": "63636300" }
				]
			},
			"smoke15": {
				"color": [
					{ "time": 0, "color": "2b2b2bca" },
					{ "time": 0.3333, "color": "3d3d3d65" },
					{ "time": 0.6666, "color": "63636300" }
				]
			}
		}
	}
}
}