{
"bones": [
	{ "name": "root" },
	{ "name": "bone49", "parent": "root", "length": 40.33, "x": -5.13, "y": 188.87, "rotation": -124.62 },
	{ "name": "bone50", "parent": "root", "length": 27.14, "x": 10.1, "y": 214.49, "rotation": 37.65 },
	{ "name": "bone51", "parent": "root", "length": 19.84, "x": -13.44, "y": 230.42, "rotation": -150.79 },
	{ "name": "bone52", "parent": "root", "length": 26.46, "x": -3.74, "y": 263.66, "rotation": -174.15 },
	{ "name": "bone53", "parent": "root", "length": 14.2, "x": 19.79, "y": 253.97, "rotation": 47.1 },
	{
		"name": "bone54",
		"parent": "root",
		"length": 104.14,
		"x": -0.58,
		"y": 254.44,
		"scaleX": 0.375,
		"scaleY": 0.625,
		"rotation": -180
	},
	{
		"name": "bone55",
		"parent": "root",
		"length": 104.14,
		"x": -58.66,
		"y": 245.48,
		"scaleX": 0.375,
		"scaleY": 0.625,
		"rotation": -180
	},
	{
		"name": "bone56",
		"parent": "root",
		"length": 104.14,
		"x": -2.97,
		"y": 212.09,
		"scaleX": 0.375,
		"scaleY": 0.625,
		"rotation": -180
	},
	{
		"name": "bone57",
		"parent": "root",
		"length": 104.14,
		"x": -61.63,
		"y": 159.95,
		"scaleX": 0.625,
		"scaleY": 0.625,
		"rotation": -180
	},
	{
		"name": "bone58",
		"parent": "root",
		"length": 104.14,
		"x": 46.77,
		"y": 204.59,
		"scaleX": 0.375,
		"scaleY": 0.625,
		"rotation": -180
	},
	{ "name": "bone59", "parent": "root", "length": 104.14, "x": 72.51, "y": 254, "scaleX": 0.375, "scaleY": 0.625, "rotation": -180 },
	{ "name": "bone61", "parent": "root", "length": 26.46, "x": -61.49, "y": 263.66, "rotation": -174.15 }
],
"slots": [
	{ "name": "blood3", "bone": "bone55", "color": "ffffff00", "attachment": "blood" },
	{ "name": "blood32", "bone": "bone56", "color": "ffffff00", "attachment": "blood" },
	{ "name": "blood322", "bone": "bone57", "color": "ffffff00", "attachment": "blood" },
	{ "name": "blood3223", "bone": "bone59", "color": "ffffff00", "attachment": "blood" },
	{ "name": "blood3222", "bone": "bone58", "color": "ffffff00", "attachment": "blood" },
	{ "name": "blood2", "bone": "bone54", "color": "ffffff00", "attachment": "blood" },
	{ "name": "die1", "bone": "bone50", "color": "ffffff00", "attachment": "die1" },
	{ "name": "die2", "bone": "bone52", "color": "ffffff00", "attachment": "die2" },
	{ "name": "die22", "bone": "bone61", "color": "ffffff00", "attachment": "die2" },
	{ "name": "die3", "bone": "bone49", "color": "ffffff00", "attachment": "die3" },
	{ "name": "die4", "bone": "bone51", "color": "ffffff00", "attachment": "die4" },
	{ "name": "die5", "bone": "bone53", "color": "ffffff00", "attachment": "die5" }
],
"skins": {
	"default": {
		"blood2": {
			"blood": { "x": 58.81, "y": 0.72, "rotation": 180, "width": 119, "height": 31 }
		},
		"blood3": {
			"blood": { "x": 58.81, "y": 0.72, "rotation": 180, "width": 119, "height": 31 }
		},
		"blood32": {
			"blood": { "x": 58.81, "y": 0.72, "rotation": 180, "width": 119, "height": 31 }
		},
		"blood322": {
			"blood": { "x": 58.81, "y": 0.72, "rotation": 180, "width": 119, "height": 31 }
		},
		"blood3222": {
			"blood": { "x": 58.81, "y": 0.72, "rotation": 180, "width": 119, "height": 31 }
		},
		"blood3223": {
			"blood": { "x": 58.81, "y": 0.72, "rotation": 180, "width": 119, "height": 31 }
		},
		"die1": {
			"die1": { "x": 3.38, "y": -0.86, "rotation": -37.65, "width": 44, "height": 38 }
		},
		"die2": {
			"die2": { "x": 4.62, "y": 2.04, "rotation": 174.15, "width": 42, "height": 20 }
		},
		"die22": {
			"die2": { "x": 1.54, "y": 1.75, "rotation": 174.15, "width": 42, "height": 20 }
		},
		"die3": {
			"die3": { "x": 1, "y": -2.22, "rotation": 124.62, "width": 42, "height": 50 }
		},
		"die4": {
			"die4": { "x": 2.4, "y": -2.09, "rotation": 150.79, "width": 30, "height": 27 }
		},
		"die5": {
			"die5": { "x": 0.08, "y": 0.4, "rotation": -47.1, "width": 24, "height": 24 }
		}
	}
},
"animations": {
	"die": {
		"bones": {
			"root": {
				"rotate": [
					{ "time": 0, "angle": 0, "curve": "stepped" },
					{ "time": 0.2666, "angle": 0 }
				],
				"translate": [
					{ "time": 0, "x": 0, "y": 0, "curve": "stepped" },
					{ "time": 0.2666, "x": 0, "y": 0 }
				],
				"scale": [
					{ "time": 0, "x": 0.999, "y": 0.999 }
				]
			},
			"bone49": {
				"rotate": [
					{ "time": 0.1666, "angle": 0 },
					{ "time": 0.4, "angle": 236.13 },
					{ "time": 0.5666, "angle": 114.33 },
					{ "time": 0.7333, "angle": -9.29 },
					{ "time": 0.9, "angle": 269.01 }
				],
				"translate": [
					{ "time": 0.1666, "x": -71.95, "y": -102.21 },
					{ "time": 0.4, "x": -151.76, "y": -35.5 },
					{ "time": 0.5666, "x": -208.76, "y": -20.51 },
					{ "time": 0.6666, "x": -249.8, "y": -47.53 },
					{ "time": 0.9, "x": -345.56, "y": -206.5 }
				],
				"scale": [
					{ "time": 0.1666, "x": 1.25, "y": 1.25, "curve": "stepped" },
					{ "time": 0.9, "x": 1.25, "y": 1.25 },
					{ "time": 1.0666, "x": 1.375, "y": 1.25 }
				]
			},
			"bone51": {
				"rotate": [
					{ "time": 0.1666, "angle": 0 },
					{ "time": 0.4, "angle": 182.97 },
					{ "time": 0.5666, "angle": 13.5 },
					{ "time": 0.7333, "angle": 237.75 },
					{ "time": 0.9, "angle": 30.07 }
				],
				"translate": [
					{ "time": 0.1666, "x": -64.55, "y": -145.93 },
					{ "time": 0.4, "x": -166.64, "y": -58.96 },
					{ "time": 0.5666, "x": -239.56, "y": -29.51 },
					{ "time": 0.6666, "x": -292.07, "y": -63.85 },
					{ "time": 0.9, "x": -414.57, "y": -239.88 }
				],
				"scale": [
					{ "time": 0.1666, "x": 1.25, "y": 1.25, "curve": "stepped" },
					{ "time": 0.9, "x": 1.25, "y": 1.25 },
					{ "time": 1.0666, "x": 1.25, "y": 1.375 }
				]
			},
			"bone53": {
				"rotate": [
					{ "time": 0.1666, "angle": 0 },
					{ "time": 0.4, "angle": -220.36 },
					{ "time": 0.5666, "angle": -96.88 },
					{ "time": 0.7333, "angle": 56.86 },
					{ "time": 0.9, "angle": -168.95 }
				],
				"translate": [
					{ "time": 0.1666, "x": -99.52, "y": -176.86 },
					{ "time": 0.4, "x": -177.82, "y": -152.03 },
					{ "time": 0.5666, "x": -233.75, "y": -166.96 },
					{ "time": 0.6666, "x": -271.77, "y": -209.61 },
					{ "time": 0.9, "x": -360.48, "y": -405.04 }
				],
				"scale": [
					{ "time": 0.1666, "x": 1.25, "y": 1.25, "curve": "stepped" },
					{ "time": 0.9, "x": 1.25, "y": 1.25 },
					{ "time": 1.0666, "x": 1.25, "y": 1.375 }
				]
			},
			"bone52": {
				"rotate": [
					{ "time": 0.1666, "angle": 0 },
					{ "time": 0.4, "angle": 84.18 },
					{ "time": 0.5666, "angle": 183.63 },
					{ "time": 0.7333, "angle": 266.89 },
					{ "time": 0.9, "angle": 352.37 }
				],
				"translate": [
					{ "time": 0.1666, "x": -63.88, "y": -192.33 },
					{ "time": 0.4, "x": -179.22, "y": -79.44 },
					{ "time": 0.5666, "x": -261.61, "y": -31.47 },
					{ "time": 0.6666, "x": -320.92, "y": -103.3 },
					{ "time": 0.9, "x": -459.33, "y": -366.82 }
				],
				"scale": [
					{ "time": 0.1666, "x": 1.25, "y": 1.25, "curve": "stepped" },
					{ "time": 0.9, "x": 1.25, "y": 1.25 },
					{ "time": 1.0666, "x": 1.375, "y": 1.25 }
				]
			},
			"bone61": {
				"rotate": [
					{ "time": 0.1666, "angle": 320.84 },
					{ "time": 0.4, "angle": 205.71 },
					{ "time": 0.5666, "angle": 98.85 },
					{ "time": 0.7333, "angle": 16.81 },
					{ "time": 0.9, "angle": 314.7 }
				],
				"translate": [
					{ "time": 0.1666, "x": -7.39, "y": -186.95 },
					{ "time": 0.4, "x": -101.35, "y": -140.63 },
					{ "time": 0.5666, "x": -168.46, "y": -140.2 },
					{ "time": 0.6666, "x": -216.78, "y": -169.44 },
					{ "time": 0.9, "x": -329.53, "y": -333.56 }
				],
				"scale": [
					{ "time": 0.1666, "x": 1.25, "y": 1.25, "curve": "stepped" },
					{ "time": 0.9, "x": 1.25, "y": 1.25 },
					{ "time": 1.0666, "x": 1.25, "y": 1.375 }
				]
			},
			"bone50": {
				"rotate": [
					{ "time": 0.1666, "angle": 0 },
					{ "time": 0.4, "angle": -102.57 },
					{ "time": 0.5666, "angle": -180.21 },
					{ "time": 0.7333, "angle": 77.61 },
					{ "time": 0.9, "angle": -11.21 }
				],
				"translate": [
					{ "time": 0.1666, "x": -104.9, "y": -140.55 },
					{ "time": 0.4, "x": -166.04, "y": -50.31 },
					{ "time": 0.5666, "x": -209.7, "y": -18.52 },
					{ "time": 0.6666, "x": -241.14, "y": -64.76 },
					{ "time": 0.9, "x": -314.5, "y": -268.58 }
				],
				"scale": [
					{ "time": 0.1666, "x": 1.25, "y": 1.25, "curve": "stepped" },
					{ "time": 0.9, "x": 1.25, "y": 1.25 },
					{ "time": 1.0666, "x": 1.375, "y": 1.25 }
				]
			},
			"bone57": {
				"translate": [
					{ "time": 0.9, "x": -265.33, "y": -181.22 }
				],
				"scale": [
					{ "time": 0.9, "x": 0.75, "y": 1 },
					{ "time": 1.0666, "x": 1, "y": 1.625 }
				]
			},
			"bone56": {
				"translate": [
					{ "time": 0.9, "x": -269.31, "y": -278.34 }
				],
				"scale": [
					{ "time": 0.9, "x": 1, "y": 1 },
					{ "time": 1.0666, "x": 1.375, "y": 1.625 }
				]
			},
			"bone58": {
				"translate": [
					{ "time": 0.9, "x": -455.56, "y": -225.28 }
				],
				"scale": [
					{ "time": 0.9, "x": 1, "y": 1 },
					{ "time": 1.0666, "x": 1.25, "y": 1.375 }
				]
			},
			"bone55": {
				"translate": [
					{ "time": 0.9, "x": -317.39, "y": -318.39 }
				],
				"scale": [
					{ "time": 0.9, "x": 1, "y": 1 },
					{ "time": 1.0666, "x": 1.25, "y": 1.625 }
				]
			},
			"bone54": {
				"translate": [
					{ "time": 0.9, "x": -446.55, "y": -357.44 }
				],
				"scale": [
					{ "time": 0.9, "x": 1, "y": 1 },
					{ "time": 1.0666, "x": 1.25, "y": 1.375 }
				]
			},
			"bone59": {
				"translate": [
					{ "time": 0.9, "x": -392.68, "y": -410.58 }
				],
				"scale": [
					{ "time": 0.9, "x": 1, "y": 1 },
					{ "time": 1.0666, "x": 1.25, "y": 1.375 }
				]
			}
		},
		"slots": {
			"die1": {
				"color": [
					{ "time": 0.1666, "color": "ffffffff", "curve": "stepped" },
					{ "time": 1.0666, "color": "ffffffff", "curve": "stepped" },
					{ "time": 2, "color": "ffffffff" },
					{ "time": 2.3333, "color": "ffffff00" }
				]
			},
			"blood2": {
				"color": [
					{ "time": 0.9, "color": "ffffffff", "curve": "stepped" },
					{ "time": 1.0666, "color": "ffffffff", "curve": "stepped" },
					{ "time": 2, "color": "ffffffff" },
					{ "time": 2.3333, "color": "ffffff00" }
				]
			},
			"die2": {
				"color": [
					{ "time": 0.1666, "color": "ffffffff", "curve": "stepped" },
					{ "time": 1.0666, "color": "ffffffff", "curve": "stepped" },
					{ "time": 2, "color": "ffffffff" },
					{ "time": 2.3333, "color": "ffffff00" }
				]
			},
			"blood3": {
				"color": [
					{ "time": 0.9, "color": "ffffffff", "curve": "stepped" },
					{ "time": 1.0666, "color": "ffffffff", "curve": "stepped" },
					{ "time": 2, "color": "ffffffff" },
					{ "time": 2.3333, "color": "ffffff00" }
				]
			},
			"die3": {
				"color": [
					{ "time": 0.1666, "color": "ffffffff", "curve": "stepped" },
					{ "time": 1.0666, "color": "ffffffff", "curve": "stepped" },
					{ "time": 2, "color": "ffffffff" },
					{ "time": 2.3333, "color": "ffffff00" }
				]
			},
			"die4": {
				"color": [
					{ "time": 0.1666, "color": "ffffffff", "curve": "stepped" },
					{ "time": 1.0666, "color": "ffffffff", "curve": "stepped" },
					{ "time": 2, "color": "ffffffff" },
					{ "time": 2.3333, "color": "ffffff00" }
				]
			},
			"die5": {
				"color": [
					{ "time": 0.1666, "color": "ffffffff", "curve": "stepped" },
					{ "time": 1.0666, "color": "ffffffff", "curve": "stepped" },
					{ "time": 2, "color": "ffffffff" },
					{ "time": 2.3333, "color": "ffffff00" }
				]
			},
			"die22": {
				"color": [
					{ "time": 0.1666, "color": "ffffffff", "curve": "stepped" },
					{ "time": 1.0666, "color": "ffffffff", "curve": "stepped" },
					{ "time": 2, "color": "ffffffff" },
					{ "time": 2.3333, "color": "ffffff00" }
				]
			},
			"blood32": {
				"color": [
					{ "time": 0.9, "color": "ffffffff", "curve": "stepped" },
					{ "time": 1.0666, "color": "ffffffff", "curve": "stepped" },
					{ "time": 2, "color": "ffffffff" },
					{ "time": 2.3333, "color": "ffffff00" }
				]
			},
			"blood322": {
				"color": [
					{ "time": 0.9, "color": "ffffffff", "curve": "stepped" },
					{ "time": 1.0666, "color": "ffffffff", "curve": "stepped" },
					{ "time": 2, "color": "ffffffff" },
					{ "time": 2.3333, "color": "ffffff00" }
				]
			},
			"blood3222": {
				"color": [
					{ "time": 0.9, "color": "ffffffff", "curve": "stepped" },
					{ "time": 1.0666, "color": "ffffffff", "curve": "stepped" },
					{ "time": 2, "color": "ffffffff" },
					{ "time": 2.3333, "color": "ffffff00" }
				]
			},
			"blood3223": {
				"color": [
					{ "time": 0.9, "color": "ffffffff", "curve": "stepped" },
					{ "time": 1.0666, "color": "ffffffff", "curve": "stepped" },
					{ "time": 2, "color": "ffffffff" },
					{ "time": 2.3333, "color": "ffffff00" }
				]
			}
		}
	}
}
}