{
"bones": [
	{ "name": "root", "scaleX": 0.8, "scaleY": 0.8 },
	{ "name": "bone64", "parent": "root", "length": 17.74, "x": 151.32, "y": -132.21, "rotation": -36.79 },
	{ "name": "bone65", "parent": "root", "length": 44.01, "x": 240.07, "y": -176.23, "rotation": 180 },
	{ "name": "bone66", "parent": "root", "length": 17.74, "x": 151.32, "y": -112.55, "rotation": -36.79 },
	{ "name": "bone67", "parent": "root", "length": 17.74, "x": 170.44, "y": -112.55, "rotation": -36.79 },
	{ "name": "bone68", "parent": "root", "length": 17.74, "x": 190.63, "y": -112.55, "rotation": -36.79 },
	{ "name": "bone69", "parent": "root", "length": 17.74, "x": 214.53, "y": -112.55, "rotation": -36.79 },
	{ "name": "bone70", "parent": "root", "length": 17.74, "x": 237.91, "y": -112.55, "rotation": -36.79 },
	{ "name": "bone71", "parent": "root", "length": 17.74, "x": 259.69, "y": -112.55, "rotation": -36.79 },
	{ "name": "bone72", "parent": "root", "length": 17.74, "x": 259.69, "y": -130.61, "rotation": -36.79 },
	{ "name": "bone73", "parent": "root", "length": 17.74, "x": 242.69, "y": -130.61, "rotation": -36.79 },
	{ "name": "bone74", "parent": "root", "length": 17.74, "x": 220.91, "y": -130.61, "rotation": -36.79 },
	{ "name": "bone75", "parent": "root", "length": 17.74, "x": 198.07, "y": -130.61, "rotation": -36.79 },
	{ "name": "bone76", "parent": "root", "length": 17.74, "x": 174.16, "y": -130.61, "rotation": -36.79 },
	{ "name": "bone77", "parent": "root", "length": 17.74, "x": 131.13, "y": -130.61, "rotation": -36.79 },
	{ "name": "bone78", "parent": "root", "length": 17.74, "x": 131.13, "y": -113.08, "rotation": -36.79 },
	{ "name": "bone79", "parent": "root", "length": 17.74, "x": 131.13, "y": -92.54, "rotation": -36.79 },
	{ "name": "bone85", "parent": "root", "length": 17.74, "x": 152.29, "y": -92.54, "rotation": -36.79 },
	{ "name": "bone86", "parent": "root", "length": 17.74, "x": 171.59, "y": -92.54, "rotation": -36.79 },
	{ "name": "bone87", "parent": "root", "length": 17.74, "x": 192.76, "y": -92.54, "rotation": -36.79 },
	{ "name": "bone88", "parent": "root", "length": 17.74, "x": 213.92, "y": -92.54, "rotation": -36.79 },
	{ "name": "bone89", "parent": "root", "length": 17.74, "x": 233.84, "y": -92.54, "rotation": -36.79 },
	{ "name": "bone90", "parent": "root", "length": 17.74, "x": 256.25, "y": -92.54, "rotation": -36.79 },
	{ "name": "bone80", "parent": "bone65", "length": 9.43, "x": 31.17, "y": 7.73, "rotation": -88.19 },
	{ "name": "bone81", "parent": "bone65", "length": 9.43, "x": -3.49, "y": 11.13, "rotation": -88.19 },
	{ "name": "bone82", "parent": "bone65", "length": 9.43, "x": 13.41, "y": -1.69, "rotation": -88.19 },
	{ "name": "bone83", "parent": "bone65", "length": 9.43, "x": -26.82, "y": 0.84, "rotation": -88.19 },
	{ "name": "bone84", "parent": "bone65", "length": 9.43, "x": -4.27, "y": 0.84, "rotation": -88.19 }
],
"slots": [
	{ "name": "acid", "bone": "bone65", "color": "ffffff00", "attachment": "acid" },
	{ "name": "acid_item1", "bone": "bone80", "color": "ffffff00", "attachment": "acid_item1" },
	{ "name": "acid_item12", "bone": "bone81", "color": "ffffff00", "attachment": "acid_item1" },
	{ "name": "acid_item122", "bone": "bone82", "color": "ffffff00", "attachment": "acid_item1" },
	{ "name": "acid_item1222", "bone": "bone83", "color": "ffffff00", "attachment": "acid_item1" },
	{ "name": "acid_item12222", "bone": "bone84", "color": "ffffff00", "attachment": "acid_item1" },
	{ "name": "acid_item", "bone": "bone64", "color": "ffffff00", "attachment": "acid_item" },
	{ "name": "acid_item2", "bone": "bone66", "color": "ffffff00", "attachment": "acid_item" },
	{ "name": "acid_item22", "bone": "bone67", "color": "ffffff00", "attachment": "acid_item" },
	{ "name": "acid_item222", "bone": "bone68", "color": "ffffff00", "attachment": "acid_item" },
	{ "name": "acid_item2222", "bone": "bone69", "color": "ffffff00", "attachment": "acid_item" },
	{ "name": "acid_item22222", "bone": "bone70", "color": "ffffff00", "attachment": "acid_item" },
	{ "name": "acid_item222222", "bone": "bone71", "color": "ffffff00", "attachment": "acid_item" },
	{ "name": "acid_item2222222", "bone": "bone72", "color": "ffffff00", "attachment": "acid_item" },
	{ "name": "acid_item22222222", "bone": "bone73", "color": "ffffff00", "attachment": "acid_item" },
	{ "name": "acid_item222222222", "bone": "bone74", "color": "ffffff00", "attachment": "acid_item" },
	{ "name": "acid_item2222222222", "bone": "bone75", "color": "ffffff00", "attachment": "acid_item" },
	{ "name": "acid_item22222222222", "bone": "bone76", "color": "ffffff00", "attachment": "acid_item" },
	{ "name": "acid_item222222222222", "bone": "bone77", "color": "ffffff00", "attachment": "acid_item" },
	{ "name": "acid_item2222222222222", "bone": "bone78", "color": "ffffff00", "attachment": "acid_item" },
	{ "name": "acid_item22222222222222", "bone": "bone79", "color": "ffffff00", "attachment": "acid_item" },
	{ "name": "acid_item222222222222222", "bone": "bone85", "color": "ffffff00", "attachment": "acid_item" },
	{ "name": "acid_item2222222222222222", "bone": "bone86", "color": "ffffff00", "attachment": "acid_item" },
	{ "name": "acid_item22222222222222222", "bone": "bone87", "color": "ffffff00", "attachment": "acid_item" },
	{ "name": "acid_item222222222222222222", "bone": "bone88", "color": "ffffff00", "attachment": "acid_item" },
	{ "name": "acid_item2222222222222222222", "bone": "bone89", "color": "ffffff00", "attachment": "acid_item" },
	{ "name": "acid_item22222222222222222222", "bone": "bone90", "color": "ffffff00", "attachment": "acid_item" }
],
"skins": {
	"default": {
		"acid": {
			"acid": { "x": 1.41, "y": 2.12, "rotation": -180, "width": 119, "height": 31 }
		},
		"acid_item": {
			"acid_item": { "x": 8.17, "y": 1.55, "rotation": 36.79, "width": 28, "height": 25 }
		},
		"acid_item1": {
			"acid_item1": { "x": 4.55, "y": -0.68, "rotation": -91.8, "width": 25, "height": 11 }
		},
		"acid_item12": {
			"acid_item1": { "x": 4.55, "y": -0.68, "rotation": -91.8, "width": 25, "height": 11 }
		},
		"acid_item122": {
			"acid_item1": { "x": 4.55, "y": -0.68, "rotation": -91.8, "width": 25, "height": 11 }
		},
		"acid_item1222": {
			"acid_item1": { "x": 4.55, "y": -0.68, "rotation": -91.8, "width": 25, "height": 11 }
		},
		"acid_item12222": {
			"acid_item1": { "x": 4.55, "y": -0.68, "rotation": -91.8, "width": 25, "height": 11 }
		},
		"acid_item2": {
			"acid_item": { "x": 8.17, "y": 1.55, "rotation": 36.79, "width": 28, "height": 25 }
		},
		"acid_item22": {
			"acid_item": { "x": 8.17, "y": 1.55, "rotation": 36.79, "width": 28, "height": 25 }
		},
		"acid_item222": {
			"acid_item": { "x": 8.17, "y": 1.55, "rotation": 36.79, "width": 28, "height": 25 }
		},
		"acid_item2222": {
			"acid_item": { "x": 8.17, "y": 1.55, "rotation": 36.79, "width": 28, "height": 25 }
		},
		"acid_item22222": {
			"acid_item": { "x": 8.17, "y": 1.55, "rotation": 36.79, "width": 28, "height": 25 }
		},
		"acid_item222222": {
			"acid_item": { "x": 8.17, "y": 1.55, "rotation": 36.79, "width": 28, "height": 25 }
		},
		"acid_item2222222": {
			"acid_item": { "x": 8.17, "y": 1.55, "rotation": 36.79, "width": 28, "height": 25 }
		},
		"acid_item22222222": {
			"acid_item": { "x": 8.17, "y": 1.55, "rotation": 36.79, "width": 28, "height": 25 }
		},
		"acid_item222222222": {
			"acid_item": { "x": 8.17, "y": 1.55, "rotation": 36.79, "width": 28, "height": 25 }
		},
		"acid_item2222222222": {
			"acid_item": { "x": 8.17, "y": 1.55, "rotation": 36.79, "width": 28, "height": 25 }
		},
		"acid_item22222222222": {
			"acid_item": { "x": 8.17, "y": 1.55, "rotation": 36.79, "width": 28, "height": 25 }
		},
		"acid_item222222222222": {
			"acid_item": { "x": 8.17, "y": 1.55, "rotation": 36.79, "width": 28, "height": 25 }
		},
		"acid_item2222222222222": {
			"acid_item": { "x": 8.17, "y": 1.55, "rotation": 36.79, "width": 28, "height": 25 }
		},
		"acid_item22222222222222": {
			"acid_item": { "x": 8.17, "y": 1.55, "rotation": 36.79, "width": 28, "height": 25 }
		},
		"acid_item222222222222222": {
			"acid_item": { "x": 8.17, "y": 1.55, "rotation": 36.79, "width": 28, "height": 25 }
		},
		"acid_item2222222222222222": {
			"acid_item": { "x": 8.17, "y": 1.55, "rotation": 36.79, "width": 28, "height": 25 }
		},
		"acid_item22222222222222222": {
			"acid_item": { "x": 8.17, "y": 1.55, "rotation": 36.79, "width": 28, "height": 25 }
		},
		"acid_item222222222222222222": {
			"acid_item": { "x": 8.17, "y": 1.55, "rotation": 36.79, "width": 28, "height": 25 }
		},
		"acid_item2222222222222222222": {
			"acid_item": { "x": 8.17, "y": 1.55, "rotation": 36.79, "width": 28, "height": 25 }
		},
		"acid_item22222222222222222222": {
			"acid_item": { "x": 8.17, "y": 1.55, "rotation": 36.79, "width": 28, "height": 25 }
		}
	}
},
"events": {
	"onatk": {},
	"ondie": {},
	"onhit": {},
	"onsplit": {}
},
"animations": {
	"split": {
		"bones": {
			"root": {
				"rotate": [
					{ "time": 0, "angle": 0, "curve": "stepped" },
					{ "time": 0.5, "angle": 0, "curve": "stepped" },
					{ "time": 1, "angle": 0 }
				],
				"translate": [
					{ "time": 0, "x": 0, "y": 0, "curve": "stepped" },
					{ "time": 0.5, "x": 0, "y": 0, "curve": "stepped" },
					{ "time": 1, "x": 0, "y": 0 }
				],
				"scale": [
					{ "time": 0, "x": 0.999, "y": 0.999, "curve": "stepped" },
					{ "time": 0.5, "x": 0.999, "y": 0.999, "curve": "stepped" },
					{ "time": 1, "x": 0.999, "y": 0.999 }
				]
			},
			"bone64": {
				"rotate": [
					{ "time": 0, "angle": 185.35 },
					{ "time": 0.2666, "angle": 213.18 },
					{ "time": 0.5, "angle": 172.96 }
				],
				"translate": [
					{ "time": 0, "x": -87.72, "y": 123.68 },
					{ "time": 0.2666, "x": 154.33, "y": 92.79 },
					{ "time": 0.5, "x": 396.7, "y": 44.19 }
				],
				"scale": [
					{ "time": 0, "x": 0, "y": 0 },
					{ "time": 0.2666, "x": 3.75, "y": 1.25 },
					{ "time": 0.5, "x": 1, "y": 1 }
				]
			},
			"bone66": {
				"rotate": [
					{ "time": 0, "angle": 189.3 },
					{ "time": 0.2666, "angle": -142.86 },
					{ "time": 0.5, "angle": 176.91 }
				],
				"translate": [
					{ "time": 0, "x": -84.82, "y": 107.01 },
					{ "time": 0.2666, "x": 157.23, "y": 61.07 },
					{ "time": 0.5, "x": 353.99, "y": 32.21 }
				],
				"scale": [
					{ "time": 0, "x": 0, "y": 0 },
					{ "time": 0.2666, "x": 3.75, "y": 1.25 },
					{ "time": 0.5, "x": 1, "y": 1 }
				]
			},
			"bone67": {
				"rotate": [
					{ "time": 0, "angle": 187.69 },
					{ "time": 0.2666, "angle": 215.51 },
					{ "time": 0.5, "angle": 175.3 }
				],
				"translate": [
					{ "time": 0, "x": -105.12, "y": 109.18 },
					{ "time": 0.2666, "x": 136.93, "y": 93.33 },
					{ "time": 0.5, "x": 396.93, "y": 23.14 }
				],
				"scale": [
					{ "time": 0, "x": 0, "y": 0 },
					{ "time": 0.2666, "x": 3.75, "y": 1.25 },
					{ "time": 0.5, "x": 1, "y": 1 }
				]
			},
			"bone68": {
				"rotate": [
					{ "time": 0.2, "angle": 185.56 },
					{ "time": 0.4666, "angle": 213.39 },
					{ "time": 0.7, "angle": 173.17 }
				],
				"translate": [
					{ "time": 0.2, "x": -127.59, "y": 107.14 },
					{ "time": 0.4666, "x": 114.46, "y": 74.02 },
					{ "time": 0.7, "x": 283.64, "y": 17.62 }
				],
				"scale": [
					{ "time": 0.2, "x": 0, "y": 0 },
					{ "time": 0.4666, "x": 3.75, "y": 1.25 },
					{ "time": 0.7, "x": 1, "y": 1 }
				]
			},
			"bone69": {
				"rotate": [
					{ "time": 0.2, "angle": 199.14 },
					{ "time": 0.4666, "angle": -133.03 },
					{ "time": 0.7, "angle": 186.75 }
				],
				"translate": [
					{ "time": 0.2, "x": -145, "y": 115.84 },
					{ "time": 0.4666, "x": 97.06, "y": 82.72 },
					{ "time": 0.7, "x": 321.77, "y": 0.77 }
				],
				"scale": [
					{ "time": 0.2, "x": 0, "y": 0 },
					{ "time": 0.4666, "x": 3.75, "y": 1.25 },
					{ "time": 0.7, "x": 1, "y": 1 }
				]
			},
			"bone70": {
				"rotate": [
					{ "time": 0.2, "angle": 193.85 },
					{ "time": 0.4666, "angle": -138.31 },
					{ "time": 0.7, "angle": 181.46 }
				],
				"translate": [
					{ "time": 0.2, "x": -170.37, "y": 110.77 },
					{ "time": 0.4666, "x": 71.68, "y": 77.64 },
					{ "time": 0.7, "x": 254.57, "y": 26.36 }
				],
				"scale": [
					{ "time": 0.2, "x": 0, "y": 0 },
					{ "time": 0.4666, "x": 3.75, "y": 1.25 },
					{ "time": 0.7, "x": 1, "y": 1 }
				]
			},
			"bone71": {
				"rotate": [
					{ "time": 0.2, "angle": 187.92 },
					{ "time": 0.4666, "angle": 215.75 },
					{ "time": 0.7, "angle": 175.53 }
				],
				"translate": [
					{ "time": 0.2, "x": -193.57, "y": 114.39 },
					{ "time": 0.4666, "x": 48.48, "y": 81.27 },
					{ "time": 0.7, "x": 234.29, "y": 4.28 }
				],
				"scale": [
					{ "time": 0.2, "x": 0, "y": 0 },
					{ "time": 0.4666, "x": 3.75, "y": 1.25 },
					{ "time": 0.7, "x": 1, "y": 1 }
				]
			},
			"bone72": {
				"rotate": [
					{ "time": 0.1333, "angle": 181.04 },
					{ "time": 0.4, "angle": 208.87 },
					{ "time": 0.6333, "angle": 168.65 }
				],
				"translate": [
					{ "time": 0.1333, "x": -193.57, "y": 128.52 },
					{ "time": 0.4, "x": 48.48, "y": 90.34 },
					{ "time": 0.6333, "x": 265.06, "y": 49.08 }
				],
				"scale": [
					{ "time": 0.1333, "x": 0, "y": 0 },
					{ "time": 0.4, "x": 3.75, "y": 1.25 },
					{ "time": 0.6333, "x": 1, "y": 1 }
				]
			},
			"bone73": {
				"rotate": [
					{ "time": 0.1333, "angle": 181.95 },
					{ "time": 0.4, "angle": 209.78 },
					{ "time": 0.6333, "angle": 169.56 }
				],
				"translate": [
					{ "time": 0.1333, "x": -176.17, "y": 131.42 },
					{ "time": 0.4, "x": 65.88, "y": 93.24 },
					{ "time": 0.6333, "x": 316.46, "y": 19.6 }
				],
				"scale": [
					{ "time": 0.1333, "x": 0, "y": 0 },
					{ "time": 0.4, "x": 3.75, "y": 1.25 },
					{ "time": 0.6333, "x": 1, "y": 1 }
				]
			},
			"bone74": {
				"rotate": [
					{ "time": 0.1333, "angle": 179.06 },
					{ "time": 0.4, "angle": 206.89 },
					{ "time": 0.6333, "angle": 166.67 }
				],
				"translate": [
					{ "time": 0.1333, "x": -151.52, "y": 127.07 },
					{ "time": 0.4, "x": 90.53, "y": 95.05 },
					{ "time": 0.6333, "x": 320.01, "y": 26.2 }
				],
				"scale": [
					{ "time": 0.1333, "x": 0, "y": 0 },
					{ "time": 0.4, "x": 3.75, "y": 1.25 },
					{ "time": 0.6333, "x": 1, "y": 1 }
				]
			},
			"bone75": {
				"rotate": [
					{ "time": 0.1333, "angle": 177.84 },
					{ "time": 0.4, "angle": 205.66 },
					{ "time": 0.6333, "angle": 165.45 }
				],
				"translate": [
					{ "time": 0.1333, "x": -131.95, "y": 130.69 },
					{ "time": 0.4, "x": 110.11, "y": 92.52 },
					{ "time": 0.6333, "x": 316.6, "y": 17.9 }
				],
				"scale": [
					{ "time": 0.1333, "x": 0, "y": 0 },
					{ "time": 0.4, "x": 3.75, "y": 1.25 },
					{ "time": 0.6333, "x": 1, "y": 1 }
				]
			},
			"bone76": {
				"rotate": [
					{ "time": 0.0666, "angle": 180.51 },
					{ "time": 0.3333, "angle": 209.84 },
					{ "time": 0.5666, "angle": 169.62 }
				],
				"translate": [
					{ "time": 0.0666, "x": -103.24, "y": 139.7 },
					{ "time": 0.3333, "x": 134.03, "y": 76.46 },
					{ "time": 0.5666, "x": 286.31, "y": 24.99 }
				],
				"scale": [
					{ "time": 0.0666, "x": 0, "y": 0 },
					{ "time": 0.3333, "x": 3.75, "y": 1.25 },
					{ "time": 0.5666, "x": 1, "y": 1 }
				]
			},
			"bone77": {
				"rotate": [
					{ "time": 0.0666, "angle": 180.51 },
					{ "time": 0.3333, "angle": 210 },
					{ "time": 0.5666, "angle": 169.78 }
				],
				"translate": [
					{ "time": 0.0666, "x": -61.94, "y": 120.23 },
					{ "time": 0.3333, "x": 175.36, "y": 91.98 },
					{ "time": 0.5666, "x": 385.44, "y": 39.1 }
				],
				"scale": [
					{ "time": 0.0666, "x": 0, "y": 0 },
					{ "time": 0.3333, "x": 3.75, "y": 1.25 },
					{ "time": 0.5666, "x": 1, "y": 1 }
				]
			},
			"bone78": {
				"rotate": [
					{ "time": 0.0666, "angle": 180.51 },
					{ "time": 0.3333, "angle": 216.22 },
					{ "time": 0.5666, "angle": 176.01 }
				],
				"translate": [
					{ "time": 0.0666, "x": -61.94, "y": 120.23 },
					{ "time": 0.3333, "x": 177.53, "y": 55.95 },
					{ "time": 0.5666, "x": 456.71, "y": 18.11 }
				],
				"scale": [
					{ "time": 0.0666, "x": 0, "y": 0 },
					{ "time": 0.3333, "x": 3.75, "y": 1.25 },
					{ "time": 0.5666, "x": 1, "y": 1 }
				]
			},
			"bone65": {
				"translate": [
					{ "time": 0.5, "x": 280.27, "y": 78.27 }
				],
				"scale": [
					{ "time": 0.5, "x": 1.25, "y": 1.25 },
					{ "time": 0.6666, "x": 2.5, "y": 2.5 }
				]
			},
			"bone79": {
				"rotate": [
					{ "time": 0.0666, "angle": 169.86 },
					{ "time": 0.3333, "angle": -142.37 },
					{ "time": 0.5666, "angle": 189.98 }
				],
				"translate": [
					{ "time": 0.0666, "x": -64.67, "y": 83.01 },
					{ "time": 0.3333, "x": 130.95, "y": 39.65 },
					{ "time": 0.5666, "x": 383.29, "y": -7.75 }
				],
				"scale": [
					{ "time": 0.0666, "x": 0, "y": 0 },
					{ "time": 0.3333, "x": 3.75, "y": 1.25 },
					{ "time": 0.5666, "x": 1, "y": 1 }
				]
			},
			"bone85": {
				"rotate": [
					{ "time": 0.0666, "angle": 168.2 },
					{ "time": 0.3333, "angle": 215.97 },
					{ "time": 0.5666, "angle": 188.32 }
				],
				"translate": [
					{ "time": 0.0666, "x": -84.27, "y": 89.26 },
					{ "time": 0.3333, "x": 161.39, "y": 53.57 },
					{ "time": 0.5666, "x": 376.36, "y": -16.75 }
				],
				"scale": [
					{ "time": 0.0666, "x": 0, "y": 0 },
					{ "time": 0.3333, "x": 3.75, "y": 1.25 },
					{ "time": 0.5666, "x": 1, "y": 1 }
				]
			},
			"bone86": {
				"rotate": [
					{ "time": 0.0666, "angle": 169.33 },
					{ "time": 0.3333, "angle": -142.89 },
					{ "time": 0.5666, "angle": 189.46 }
				],
				"translate": [
					{ "time": 0.0666, "x": -105.34, "y": 84.36 },
					{ "time": 0.3333, "x": 157.67, "y": 43.5 },
					{ "time": 0.5666, "x": 358.56, "y": 0.82 }
				],
				"scale": [
					{ "time": 0.0666, "x": 0, "y": 0 },
					{ "time": 0.3333, "x": 3.75, "y": 1.25 },
					{ "time": 0.5666, "x": 1, "y": 1 }
				]
			},
			"bone87": {
				"rotate": [
					{ "time": 0.0666, "angle": 169.71 },
					{ "time": 0.3333, "angle": -142.52 },
					{ "time": 0.5666, "angle": 189.83 }
				],
				"translate": [
					{ "time": 0.0666, "x": -122.49, "y": 86.32 },
					{ "time": 0.3333, "x": 161.59, "y": 51.36 },
					{ "time": 0.5666, "x": 372.88, "y": -10.29 }
				],
				"scale": [
					{ "time": 0.0666, "x": 0, "y": 0 },
					{ "time": 0.3333, "x": 3.75, "y": 1.25 },
					{ "time": 0.5666, "x": 1, "y": 1 }
				]
			},
			"bone88": {
				"rotate": [
					{ "time": 0.0666, "angle": 171 },
					{ "time": 0.3333, "angle": -141.22 },
					{ "time": 0.5666, "angle": 191.12 }
				],
				"translate": [
					{ "time": 0.0666, "x": -142.58, "y": 89.75 },
					{ "time": 0.3333, "x": 86.08, "y": 74.62 },
					{ "time": 0.5666, "x": 286.17, "y": -11.36 }
				],
				"scale": [
					{ "time": 0.0666, "x": 0, "y": 0 },
					{ "time": 0.3333, "x": 3.75, "y": 1.25 },
					{ "time": 0.5666, "x": 1, "y": 1 }
				]
			},
			"bone89": {
				"rotate": [
					{ "time": 0.0666, "angle": 179.17 },
					{ "time": 0.3333, "angle": -133.05 },
					{ "time": 0.5666, "angle": 199.29 }
				],
				"translate": [
					{ "time": 0.0666, "x": -162.67, "y": 90.24 },
					{ "time": 0.3333, "x": 57.71, "y": 63.71 },
					{ "time": 0.5666, "x": 250.55, "y": 1.38 }
				],
				"scale": [
					{ "time": 0.0666, "x": 0, "y": 0 },
					{ "time": 0.3333, "x": 3.75, "y": 1.25 },
					{ "time": 0.5666, "x": 1, "y": 1 }
				]
			},
			"bone90": {
				"rotate": [
					{ "time": 0.0666, "angle": 179.67 },
					{ "time": 0.3333, "angle": -132.55 },
					{ "time": 0.5666, "angle": 199.79 }
				],
				"translate": [
					{ "time": 0.0666, "x": -190.6, "y": 94.16 },
					{ "time": 0.3333, "x": 73.08, "y": 28.99 },
					{ "time": 0.5666, "x": 292.1, "y": -15.94 }
				],
				"scale": [
					{ "time": 0.0666, "x": 0, "y": 0 },
					{ "time": 0.3333, "x": 3.75, "y": 1.25 },
					{ "time": 0.5666, "x": 1, "y": 1 }
				]
			},
			"bone80": {
				"translate": [
					{ "time": 0.5, "x": 0, "y": 0, "curve": "stepped" },
					{ "time": 0.9333, "x": 0, "y": 0 },
					{ "time": 1, "x": 0, "y": -8.14 },
					{ "time": 1.3333, "x": 0, "y": 0, "curve": "stepped" },
					{ "time": 1.7666, "x": 0, "y": 0 },
					{ "time": 1.8333, "x": 0, "y": -8.14 },
					{ "time": 2.1666, "x": 0, "y": 0, "curve": "stepped" },
					{ "time": 2.6, "x": 0, "y": 0 },
					{ "time": 2.6666, "x": 0, "y": -8.14 }
				],
				"scale": [
					{ "time": 0.5, "x": 0, "y": 0 },
					{ "time": 0.6666, "x": 1, "y": 1 },
					{ "time": 0.8, "x": 0.533, "y": 0.8 },
					{ "time": 0.9333, "x": 1, "y": 1 },
					{ "time": 1, "x": 0, "y": 0, "curve": "stepped" },
					{ "time": 1.3333, "x": 0, "y": 0 },
					{ "time": 1.5, "x": 1, "y": 1 },
					{ "time": 1.6333, "x": 0.533, "y": 0.8 },
					{ "time": 1.7666, "x": 1, "y": 1 },
					{ "time": 1.8333, "x": 0, "y": 0, "curve": "stepped" },
					{ "time": 2.1666, "x": 0, "y": 0 },
					{ "time": 2.3333, "x": 1, "y": 1 },
					{ "time": 2.4666, "x": 0.533, "y": 0.8 },
					{ "time": 2.6, "x": 1, "y": 1 },
					{ "time": 2.6666, "x": 0, "y": 0 }
				]
			},
			"bone81": {
				"translate": [
					{ "time": 0.6, "x": 0, "y": 0, "curve": "stepped" },
					{ "time": 1.0333, "x": 0, "y": 0 },
					{ "time": 1.1, "x": 0, "y": -5.97 },
					{ "time": 1.4333, "x": 0, "y": 0, "curve": "stepped" },
					{ "time": 1.8666, "x": 0, "y": 0 },
					{ "time": 1.9333, "x": 0, "y": -5.97 },
					{ "time": 2.2666, "x": 0, "y": 0, "curve": "stepped" },
					{ "time": 2.7, "x": 0, "y": 0 },
					{ "time": 2.7666, "x": 0, "y": -5.97 }
				],
				"scale": [
					{ "time": 0.6, "x": 0, "y": 0 },
					{ "time": 0.7666, "x": 1, "y": 1 },
					{ "time": 0.9, "x": 0.533, "y": 0.8 },
					{ "time": 1.0333, "x": 1, "y": 1 },
					{ "time": 1.1, "x": 0, "y": 0, "curve": "stepped" },
					{ "time": 1.4333, "x": 0, "y": 0 },
					{ "time": 1.6, "x": 1, "y": 1 },
					{ "time": 1.7333, "x": 0.533, "y": 0.8 },
					{ "time": 1.8666, "x": 1, "y": 1 },
					{ "time": 1.9333, "x": 0, "y": 0, "curve": "stepped" },
					{ "time": 2.2666, "x": 0, "y": 0 },
					{ "time": 2.4333, "x": 1, "y": 1 },
					{ "time": 2.5666, "x": 0.533, "y": 0.8 },
					{ "time": 2.7, "x": 1, "y": 1 },
					{ "time": 2.7666, "x": 0, "y": 0 }
				]
			},
			"bone82": {
				"translate": [
					{ "time": 0.6666, "x": 0, "y": 0, "curve": "stepped" },
					{ "time": 1.1, "x": 0, "y": 0 },
					{ "time": 1.1666, "x": 0, "y": -5.97 },
					{ "time": 1.5, "x": 0, "y": 0, "curve": "stepped" },
					{ "time": 1.9333, "x": 0, "y": 0 },
					{ "time": 2, "x": 0, "y": -5.97 },
					{ "time": 2.3333, "x": 0, "y": 0, "curve": "stepped" },
					{ "time": 2.7666, "x": 0, "y": 0 },
					{ "time": 2.8333, "x": 0, "y": -5.97 }
				],
				"scale": [
					{ "time": 0.6666, "x": 0, "y": 0 },
					{ "time": 0.8333, "x": 1, "y": 1 },
					{ "time": 0.9666, "x": 0.533, "y": 0.8 },
					{ "time": 1.1, "x": 1, "y": 1 },
					{ "time": 1.1666, "x": 0, "y": 0, "curve": "stepped" },
					{ "time": 1.5, "x": 0, "y": 0 },
					{ "time": 1.6666, "x": 1, "y": 1 },
					{ "time": 1.8, "x": 0.533, "y": 0.8 },
					{ "time": 1.9333, "x": 1, "y": 1 },
					{ "time": 2, "x": 0, "y": 0, "curve": "stepped" },
					{ "time": 2.3333, "x": 0, "y": 0 },
					{ "time": 2.5, "x": 1, "y": 1 },
					{ "time": 2.6333, "x": 0.533, "y": 0.8 },
					{ "time": 2.7666, "x": 1, "y": 1 },
					{ "time": 2.8333, "x": 0, "y": 0 }
				]
			},
			"bone83": {
				"translate": [
					{ "time": 0.7666, "x": 0, "y": 0, "curve": "stepped" },
					{ "time": 1.2, "x": 0, "y": 0 },
					{ "time": 1.2666, "x": 0, "y": -4.95 },
					{ "time": 1.6, "x": 0, "y": 0, "curve": "stepped" },
					{ "time": 2.0333, "x": 0, "y": 0 },
					{ "time": 2.1, "x": 0, "y": -4.95 },
					{ "time": 2.4333, "x": 0, "y": 0, "curve": "stepped" },
					{ "time": 2.8666, "x": 0, "y": 0 },
					{ "time": 2.9333, "x": 0, "y": -4.95 }
				],
				"scale": [
					{ "time": 0.7666, "x": 0, "y": 0 },
					{ "time": 0.9333, "x": 1, "y": 1 },
					{ "time": 1.0666, "x": 0.533, "y": 0.8 },
					{ "time": 1.2, "x": 1, "y": 1 },
					{ "time": 1.2666, "x": 0, "y": 0, "curve": "stepped" },
					{ "time": 1.6, "x": 0, "y": 0 },
					{ "time": 1.7666, "x": 1, "y": 1 },
					{ "time": 1.9, "x": 0.533, "y": 0.8 },
					{ "time": 2.0333, "x": 1, "y": 1 },
					{ "time": 2.1, "x": 0, "y": 0, "curve": "stepped" },
					{ "time": 2.4333, "x": 0, "y": 0 },
					{ "time": 2.6, "x": 1, "y": 1 },
					{ "time": 2.7333, "x": 0.533, "y": 0.8 },
					{ "time": 2.8666, "x": 1, "y": 1 },
					{ "time": 2.9333, "x": 0, "y": 0 }
				]
			},
			"bone84": {
				"translate": [
					{ "time": 0.8333, "x": 0, "y": 0, "curve": "stepped" },
					{ "time": 1.2666, "x": 0, "y": 0 },
					{ "time": 1.3333, "x": 0, "y": -5.64 },
					{ "time": 1.6666, "x": 0, "y": 0, "curve": "stepped" },
					{ "time": 2.1, "x": 0, "y": 0 },
					{ "time": 2.1666, "x": 0, "y": -5.64 },
					{ "time": 2.5, "x": 0, "y": 0, "curve": "stepped" },
					{ "time": 2.9333, "x": 0, "y": 0 },
					{ "time": 3, "x": 0, "y": -5.64 }
				],
				"scale": [
					{ "time": 0.8333, "x": 0, "y": 0 },
					{ "time": 1, "x": 1, "y": 1 },
					{ "time": 1.1333, "x": 0.533, "y": 0.8 },
					{ "time": 1.2666, "x": 1, "y": 1 },
					{ "time": 1.3333, "x": 0, "y": 0, "curve": "stepped" },
					{ "time": 1.6666, "x": 0, "y": 0 },
					{ "time": 1.8333, "x": 1, "y": 1 },
					{ "time": 1.9666, "x": 0.533, "y": 0.8 },
					{ "time": 2.1, "x": 1, "y": 1 },
					{ "time": 2.1666, "x": 0, "y": 0, "curve": "stepped" },
					{ "time": 2.5, "x": 0, "y": 0 },
					{ "time": 2.6666, "x": 1, "y": 1 },
					{ "time": 2.8, "x": 0.533, "y": 0.8 },
					{ "time": 2.9333, "x": 1, "y": 1 },
					{ "time": 3, "x": 0, "y": 0 }
				]
			}
		},
		"slots": {
			"acid": {
				"color": [
					{ "time": 0.5, "color": "ffffffff", "curve": "stepped" },
					{ "time": 2.8333, "color": "ffffffff" },
					{ "time": 3, "color": "ffffff00" }
				]
			},
			"acid_item": {
				"color": [
					{ "time": 0, "color": "ffffffff", "curve": "stepped" },
					{ "time": 0.2666, "color": "ffffffff" },
					{ "time": 0.5, "color": "ffffff00" }
				]
			},
			"acid_item2222222222": {
				"color": [
					{ "time": 0.1333, "color": "ffffffff", "curve": "stepped" },
					{ "time": 0.4, "color": "ffffffff" },
					{ "time": 0.6333, "color": "ffffff00" }
				]
			},
			"acid_item22222222222": {
				"color": [
					{ "time": 0.0666, "color": "ffffffff", "curve": "stepped" },
					{ "time": 0.3333, "color": "ffffffff" },
					{ "time": 0.5666, "color": "ffffff00" }
				]
			},
			"acid_item222222222222": {
				"color": [
					{ "time": 0.0666, "color": "ffffffff", "curve": "stepped" },
					{ "time": 0.3333, "color": "ffffffff" },
					{ "time": 0.5666, "color": "ffffff00" }
				]
			},
			"acid_item2222222222222": {
				"color": [
					{ "time": 0.0666, "color": "ffffffff", "curve": "stepped" },
					{ "time": 0.3333, "color": "ffffffff" },
					{ "time": 0.5666, "color": "ffffff00" }
				]
			},
			"acid_item22222222222222": {
				"color": [
					{ "time": 0.0666, "color": "ffffffff", "curve": "stepped" },
					{ "time": 0.3333, "color": "ffffffff" },
					{ "time": 0.5666, "color": "ffffff00" }
				]
			},
			"acid_item222222222222222": {
				"color": [
					{ "time": 0.0666, "color": "ffffffff", "curve": "stepped" },
					{ "time": 0.3333, "color": "ffffffff" },
					{ "time": 0.5666, "color": "ffffff00" }
				]
			},
			"acid_item2222222222222222": {
				"color": [
					{ "time": 0.0666, "color": "ffffffff", "curve": "stepped" },
					{ "time": 0.3333, "color": "ffffffff" },
					{ "time": 0.5666, "color": "ffffff00" }
				]
			},
			"acid_item22222222222222222": {
				"color": [
					{ "time": 0.0666, "color": "ffffffff", "curve": "stepped" },
					{ "time": 0.3333, "color": "ffffffff" },
					{ "time": 0.5666, "color": "ffffff00" }
				]
			},
			"acid_item222222222222222222": {
				"color": [
					{ "time": 0.0666, "color": "ffffffff", "curve": "stepped" },
					{ "time": 0.3333, "color": "ffffffff" },
					{ "time": 0.5666, "color": "ffffff00" }
				]
			},
			"acid_item2222222222222222222": {
				"color": [
					{ "time": 0.0666, "color": "ffffffff", "curve": "stepped" },
					{ "time": 0.3333, "color": "ffffffff" },
					{ "time": 0.5666, "color": "ffffff00" }
				]
			},
			"acid_item22222222222222222222": {
				"color": [
					{ "time": 0.0666, "color": "ffffffff", "curve": "stepped" },
					{ "time": 0.3333, "color": "ffffffff" },
					{ "time": 0.5666, "color": "ffffff00" }
				]
			},
			"acid_item1": {
				"color": [
					{ "time": 0.5, "color": "ffffffff" }
				]
			},
			"acid_item2": {
				"color": [
					{ "time": 0, "color": "ffffffff", "curve": "stepped" },
					{ "time": 0.2666, "color": "ffffffff" },
					{ "time": 0.5, "color": "ffffff00" }
				]
			},
			"acid_item12": {
				"color": [
					{ "time": 0.6, "color": "ffffffff" }
				]
			},
			"acid_item22": {
				"color": [
					{ "time": 0, "color": "ffffffff", "curve": "stepped" },
					{ "time": 0.2666, "color": "ffffffff" },
					{ "time": 0.5, "color": "ffffff00" }
				]
			},
			"acid_item122": {
				"color": [
					{ "time": 0.6666, "color": "ffffffff" }
				]
			},
			"acid_item222": {
				"color": [
					{ "time": 0.2, "color": "ffffffff", "curve": "stepped" },
					{ "time": 0.4666, "color": "ffffffff" },
					{ "time": 0.7, "color": "ffffff00" }
				]
			},
			"acid_item1222": {
				"color": [
					{ "time": 0.7666, "color": "ffffffff" }
				]
			},
			"acid_item2222": {
				"color": [
					{ "time": 0.2, "color": "ffffffff", "curve": "stepped" },
					{ "time": 0.4666, "color": "ffffffff" },
					{ "time": 0.7, "color": "ffffff00" }
				]
			},
			"acid_item12222": {
				"color": [
					{ "time": 0.8333, "color": "ffffffff" }
				]
			},
			"acid_item22222": {
				"color": [
					{ "time": 0.2, "color": "ffffffff", "curve": "stepped" },
					{ "time": 0.4666, "color": "ffffffff" },
					{ "time": 0.7, "color": "ffffff00" }
				]
			},
			"acid_item222222": {
				"color": [
					{ "time": 0.2, "color": "ffffffff", "curve": "stepped" },
					{ "time": 0.4666, "color": "ffffffff" },
					{ "time": 0.7, "color": "ffffff00" }
				]
			},
			"acid_item2222222": {
				"color": [
					{ "time": 0.1333, "color": "ffffffff", "curve": "stepped" },
					{ "time": 0.4, "color": "ffffffff" },
					{ "time": 0.6333, "color": "ffffff00" }
				]
			},
			"acid_item22222222": {
				"color": [
					{ "time": 0.1333, "color": "ffffffff", "curve": "stepped" },
					{ "time": 0.4, "color": "ffffffff" },
					{ "time": 0.6333, "color": "ffffff00" }
				]
			},
			"acid_item222222222": {
				"color": [
					{ "time": 0.1333, "color": "ffffffff", "curve": "stepped" },
					{ "time": 0.4, "color": "ffffffff" },
					{ "time": 0.6333, "color": "ffffff00" }
				]
			}
		},
		"events": [
			{ "time": 0.6666, "name": "onsplit" }
		]
	}
}
}