{
"bones": [
	{ "name": "root" },
	{ "name": "bone", "parent": "root", "length": 41.67, "x": -2.52, "y": 171.17, "rotation": -145.28 }
],
"slots": [
	{ "name": "emty1", "bone": "bone", "color": "ffffff00", "attachment": "emty1" }
],
"skins": {
	"default": {
		"emty1": {
			"emty1": { "x": 1.57, "y": 1.31, "rotation": 145.28, "width": 98, "height": 89 }
		}
	}
},
"animations": {
	"emty_bullet": {
		"bones": {
			"bone": {
				"scale": [
					{ "time": 0, "x": 0, "y": 0 },
					{ "time": 0.0666, "x": 1, "y": 1 }
				]
			}
		},
		"slots": {
			"emty1": {
				"color": [
					{ "time": 0, "color": "ffffffff", "curve": "stepped" },
					{ "time": 0.0666, "color": "ffffffff" },
					{ "time": 0.1666, "color": "ffffff00" },
					{ "time": 0.3, "color": "ffffffff", "curve": "stepped" },
					{ "time": 0.3666, "color": "ffffffff" },
					{ "time": 0.5, "color": "ffffff00" }
				]
			}
		}
	}
}
}